{       
    "development": {
        "app": {
            "root": "app",
            "scripts": "app/**/*.js",
            "styles": "app/**/*.css",
            "images": "app/**/*.png",
            "templates": "app/**/*.html"
        },
        "vendor": {
            "scripts": [
                "node_modules/jquery/dist/jquery.js",
				"node_modules/angular/angular.js",
				"node_modules/@uirouter/angularjs/release/angular-ui-router.js",
				"node_modules/angular-animate/angular-animate.js",
				"node_modules/angular-aria/angular-aria.js",
				"node_modules/angular-material/angular-material.js",
				"node_modules/angular-messages/angular-messages.js",
				"node_modules/angular-sanitize/angular-sanitize.js",
				"node_modules/opentok-client/opentok-client.js",
				"node_modules/angular-websocket/dist/angular-websocket.js",
				"node_modules/chart.js/dist/Chart.js",
				"node_modules/angular-chart.js/dist/angular-chart.js"
            ],
            "styles": [
                "node_modules/angular-material/angular-material.css"
            ]
        },
        "extras": ["favicon.ico"],
        "ignoreSuffixes": [".production.", ".tests."],
        "sourcemaps": true,
        "bundle": false,
        "minifyScripts": false,
        "minifyCss": false,
        "hash": false,
        "output": {
            "root": "../../server/PlayGen.InterviewSkills.WebAPI/wwwroot",
			"app": "../../server/PlayGen.InterviewSkills.WebAPI/wwwroot/app",
			"vendor": "../../server/PlayGen.InterviewSkills.WebAPI/wwwroot/vendor"
        }
    },
    "production": {
        "app": {
            "root": "app",
            "scripts": "app/**/*.js",
            "styles": "app/**/*.css",
            "images": "app/**/*.png",
            "templates": "app/**/*.html"
        },
        "vendor": {
            "scripts": [
                "node_modules/jquery/dist/jquery.min.js",
				"node_modules/angular/angular.min.js",
				"node_modules//@uirouter/angularjs/release/angular-ui-router.min.js",
				"node_modules/angular-animate/angular-animate.min.js",
				"node_modules/angular-aria/angular-aria.min.js",
				"node_modules/angular-material/angular-material.min.js",
				"node_modules/angular-messages/angular-messages.min.js",
				"node_modules/angular-sanitize/angular-sanitize.min.js",
				"node_modules/opentok-client/opentok-client.min.js",
				"node_modules/angular-websocket/dist/angular-websocket.min.js",
				"node_modules/chart.js/dist/Chart.min.js",
				"node_modules/angular-chart.js/dist/angular-chart.min.js"
            ],
            "styles": [
                "node_modules/angular-material/angular-material.min.css"
            ]
        },
        "extras": ["favicon.ico"],
        "ignoreSuffixes": [".development.", ".tests."],
        "sourcemaps": false,
        "bundle": true,
        "minifyScripts": true,
        "minifyCss": true,
        "hash": true,
        "output": {
            "root": "../../server/PlayGen.InterviewSkills.WebAPI/wwwroot",
			"app": "../../server/PlayGen.InterviewSkills.WebAPI/wwwroot",
			"vendor": "../../server/PlayGen.InterviewSkills.WebAPI/wwwroot"
        }
    },
    "test": {
		"app": {
			"root": "app",
			"scripts": "app/**/scripts/**/*.js"
		},
		"ignoreSuffixes": [".production."],
		"sourcemaps": true,
		"output": {
			"app": "../test/app"
		}
    }
}